…
``` r
#data_frame of pvalues that are lower than 0.005
pvalues<-full_data %>% 
  group_by(hgnc_symbol) %>% 
  summarize( pvalue = t.test(Count ~ disease)$p.value)
pvalues005<-subset(pvalues, pvalue<0.005)
#This is the new data frame
pvalues005
```

    ## # A tibble: 1,070 x 2
    ##    hgnc_symbol   pvalue
    ##    <fct>          <dbl>
    ##  1 ABCB1       0.00351 
    ##  2 ABCC6P1     0.000528
    ##  3 ABHD14B     0.000621
    ##  4 ABHD17C     0.000344
    ##  5 ABI3        0.000807
    ##  6 ABL2        0.00171 
    ##  7 ACADSB      0.00153 
    ##  8 ACOT8       0.00244 
    ##  9 ACOX1       0.000421
    ## 10 ACSL5       0.00471 
    ## # ... with 1,060 more rows
…
